{
    "rows": [
        {
            "id": "7",
            "lead_id": "11453",
            "lead_name": "AYUSH MUNOT",
            "original_resume_name": "19475093316a323e8c132c2.pdf",
            "file_path": "C:\\xampp\\htdocs\\hr\\resume\\19475093316a323e8c132c2.pdf",
            "file_extension": "pdf",
            "extraction_status": "completed",
            "extracted_email": "ayush.munot786@gmail.com",
            "extracted_phone": "09699912501",
            "extracted_skills": null,
            "raw_text": "? ? ? ? ? ? ? ? ? ? ? ? ? ?\n? ? ? ? ? ? ?\n? ? ? ? ? ? ? ? ? ? ? ? ? ? ? ? ? ? ? ? ? ? ? ? ? ? ? ? ? ? ? ? ? ? ? ? ? ? ? ? ? ? ? ? ? ? ? ? ? ? ? ? ? ? ? ? ? ? ? ? ? ? ?\n? ? ? ? ? ? ? ? ? ? ? ? ? ? ? ? ? ? ? ? ? ? ? ? ? ? ? ? ? ? ? ? ? ? ? ? ? ? ? ? ? ? ? ? ? ? ? ? ? ? ? ?\n? ? ? ? ? ? ? ? ? ? ?\n? ? ? ? ? ? ? ? ? ? ? ? ? ? ? ? ? ? ? ? ? ? ? ? ? ? ? ? ? ? ? ? ? ? ? ? ? ? ? ? ? ? ? ? ? ? ? ? ? ? ? ? ? ? ? ? ? ? ? ? ? ?\n? ? ? ? ? ? ? ? ? ? ? ? ? ? ? ? ? ? ? ? ? ? ? ? ? ? ? ? ? ? ? ? ? ? ? ? ? ? ? ? ? ? ? ? ? ? ? ? ? ? ? ? ? ? ? ? ? ? ? ? ? ? ? ?\n? ? ? ? ? ? ? ? ? ? ? ? ? ? ? ? ? ? ? ? ? ? ? ? ? ? ? ? ? ? ?\n? ? ? ? ? ? ? ? ? ? ? ? ? ? ? ? ? ? ? ? ? ? ? ? ? ? ? ? ? ? ? ? ? ? ? ? ? ? ? ? ? ? ? ? ? ? ? ? ? ? ? ? ? ? ?\n? ? ? ? ? ? ? ? ? ? ? ? ? ? ? ? ? ? ? ? ? ? ? ? ? ? ? ? ? ? ? ? ? ? ? ? ? ? ? ? ? ? ? ? ? ? ? ? ? ? ? ? ? ? ? ? ? ? ? ? ? ? ? ? ? ? ?\n? ? ? ? ? ? ? ? ? ? ? ? ? ? ? ? ? ? ? ? ? ? ? ? ? ? ? ? ? ? ? ? ? ? ? ? ? ? ? ? ? ? ? ? ? ? ? ? ? ? ? ? ? ? ? ? ? ? ? ?\n? ? ? ?\n? ? ? ? ? ? ? ? ? ? ? ? ? ? ? ? ? ? ? ? ? ? ? ? ? ? ? ? ? ? ? ? ? ? ? ? ? ? ? ? ? ? ? ? ? ? ? ? ? ? ? ? ? ?\n? ? ? ? ? ? ? ? ? ? ? ? ? ? ? ? ? ? ? ? ? ? ? ? ? ? ? ? ? ? ? ? ? ? ? ? ? ? ? ? ? ? ? ? ? ? ? ? ? ? ? ? ? ? ? ? ? ? ? ? ? ? ?\n? ? ? ? ? ? ? ? ? ? ? ? ? ? ? ? ? ? ? ? ? ? ? ? ? ? ? ? ? ? ? ?\n? ? ? ? ? ? ? ? ? ? ? ? ?\n? ? ? ? ? ? ? ? ? ? ? ? ? ? ? ? ? ? ? ? ? ? ? ?\n? ? ? ? ? ? ? ? ? ? ? ? ? ? ? ? ? ? ?\n? ? ? ? ? ? ? ? ? ? ? ? ? ? ? ? ? ? ? ? ? ? ? ? ? ? ? ? ? ? ? ? ? ? ?\n? ? ? ? ? ? ? ? ? ? ? ? ? ? ? ? ? ? ? ? ? ? ? ? ? ? ? ?\n? ? ? ? ? ? ? ? ? ? ? ? ? ? ? ? ? ? ?\n? ? ? ? ? ? ? ? ? ? ? ? ? ? ? ?\n? ? ? ? ? ? ? ? ?\n? ? ? ? ? ?\n? ? ? ? ? ? ? ? ?\n? ? ? ? ? ? ? ? ? ?\n? ? ? ? ? ? ? ? ? ? ?\n? ? ? ? ? ? ?\n? ? ? ? ? ? ? ? ? ? ? ? ? ? ? ? ? ? ? ?\n? ? ? ? ? ? ? ? ? ? ?\n? ? ? ? ? ? ? ? ? ? ? ? ?\n? ? ? ? ? ? ? ? ? ? ? ? ? ? ?\n? ? ? ? ? ? ? ? ? ? ? ? ?\n? ? ? ? ? ? ? ? ? ? ? ? ? ?\n? ? ? ? ? ? ? ? ? ? ? ?\n? ? ? ? ? ? ?\n? ? ? ? ?\n? ? ? ? ? ? ? ? ? ?\n? ? ? ? ? ? ? ? ? ? ? ? ? ? ? ? ? ? ? ? ? ? ? ? ? ? ? ? ? ? ? ? ? ? ? ? ? ? ? ? ? ? ? ? ? ? ? ? ? ? ? ? ? ? ? ? ? ? ? ? ?\n? ? ? ? ? ? ? ? ? ? ? ?\n? ? ? ? ? ? ? ? ? ? ? ? ?\n? ? ? ? ? ? ? ? ?\n? ? ? ? ? ? ? ? ? ? ? ? ? ? ? ? ? ? ? ? ? ? ? ? ? ? ? ? ? ? ? ? ? ? ? ? ? ? ? ? ? ? ?\n? ? ? ? ? ? ? ? ? ? ? ? ? ? ? ? ? ? ? ? ? ? ? ? ? ? ? ? ? ? ? ? ? ? ? ? ? ? ? ? ? ? ? ? ? ? ? ? ? ? ? ?\n? ? ? ? ? ? ? ? ? ? ? ? ? ? ? ?\n? ? ? ? ? ? ? ? ? ? ? ? ? ? ? ? ? ? ? ? ? ? ? ? ? ? ? ? ? ? ? ? ? ? ? ? ? ? ? ? ? ? ? ? ? ? ? ? ? ?\n? ? ? ? ? ? ? ? ? ? ? ? ? ? ? ? ? ? ? ? ? ? ? ? ? ? ? ? ? ? ? ? ? ? ? ? ? ? ? ? ? ? ? ? ? ? ? ? ? ? ? ? ? ? ? ? ? ? ? ? ? ? ?\n?\n? ? ? ? ? ? ? ? ? ? ? ? ? ? ? ? ? ? ? ? ? ? ? ? ? ? ? ? ? ? ? ? ? ? ? ? ? ? ? ? ? ? ? ? ? ? ? ? ? ? ? ? ? ? ? ? ? ? ? ? ? ? ? ? ? ? ? ? ? ? ? ? ? ? ?\n?\n? ? ? ? ? ? ? ? ? ? ? ? ? ? ? ? ? ? ? ? ? ? ? ? ? ? ? ? ? ? ? ? ? ? ? ? ? ? ? ? ? ? ? ? ? ? ? ? ? ? ? ? ? ? ? ? ? ? ? ? ? ? ? ? ? ? ? ? ? ? ? ? ?\n? ? ? ? ? ? ? ? ? ? ? ? ? ? ? ? ? ? ? ? ? ? ? ? ? ? ? ? ? ? ? ? ? ? ? ? ? ? ? ? ? ? ? ? ? ? ? ? ? ? ? ? ? ? ? ? ? ? ? ? ? ? ? ? ?\n? ? ? ? ? ? ? ? ? ? ? ? ? ? ? ? ? ? ? ? ? ? ? ? ? ? ? ? ? ? ? ? ? ? ? ? ? ? ? ? ? ? ? ? ? ? ? ? ? ? ? ? ? ? ? ? ? ? ? ? ? ? ? ? ? ?\n? ? ? ? ? ? ? ? ? ? ? ? ? ? ? ? ? ? ? ? ? ? ? ? ? ? ? ? ? ? ? ? ? ? ? ? ? ? ? ? ? ? ? ? ? ? ? ? ? ? ? ? ? ? ? ? ? ? ? ? ? ? ? ?\n? ? ? ? ? ? ? ? ? ? ? ? ? ? ? ? ? ? ? ? ? ? ? ? ? ? ? ? ? ? ? ? ? ? ? ? ? ? ? ? ? ? ? ? ? ? ? ? ? ? ? ? ? ? ?\n? ? ? ? ? ? ? ? ? ? ? ? ? ? ? ? ? ? ? ? ? ? ? ? ? ? ? ? ? ? ? ? ? ? ? ? ? ? ? ? ? ? ? ? ? ? ? ? ? ? ? ? ? ? ? ? ? ? ? ? ? ? ? ? ? ? ?\n? ? ? ? ? ? ? ? ? ? ? ? ? ? ? ? ? ? ? ? ? ? ? ? ? ? ? ? ? ? ? ? ? ? ? ? ? ? ? ? ?\n? ? ? ? ? ? ? ? ? ? ? ? ? ? ? ? ? ? ? ? ? ? ? ? ? ? ? ? ? ? ? ? ? ? ? ? ? ? ? ? ? ? ? ? ? ? ? ? ? ? ? ? ? ? ? ? ? ? ? ? ? ?\n? ? ? ? ? ? ? ? ? ? ? ? ? ? ? ? ? ? ? ? ? ? ? ? ? ? ? ? ? ? ? ? ? ? ? ? ? ? ? ?\n? ? ? ? ? ? ? ? ? ? ? ? ? ? ? ? ? ? ? ? ? ? ? ? ? ? ? ? ? ? ? ? ? ? ? ? ? ? ? ? ? ? ? ? ? ? ? ? ? ? ? ? ? ? ? ? ? ? ? ? ? ? ? ? ? ?\n? ? ? ? ? ? ? ? ? ? ? ? ? ? ? ? ? ? ? ? ? ? ? ? ? ? ? ? ? ? ? ? ? ? ? ? ?\n? ? ? ? ? ? ? ? ?\n? ? ? ? ? ? ? ? ? ? ? ? ? ? ? ? ? ? ? ? ? ? ? ? ? ? ? ? ? ? ? ? ? ? ? ? ? ? ? ? ? ? ? ? ? ? ? ? ? ? ? ? ? ? ? ?\n? ? ? ? ? ? ? ? ? ? ? ? ? ? ? ? ? ? ? ? ? ? ? ? ? ? ? ? ? ? ? ? ? ? ? ? ? ? ? ? ? ? ? ? ? ? ? ? ? ? ? ? ? ? ? ? ? ? ? ? ? ? ?\n? ? ? ? ? ? ? ? ? ? ? ? ? ? ? ? ? ? ? ? ? ? ? ? ? ? ? ? ? ? ? ? ? ? ? ? ? ? ? ? ? ? ? ? ? ? ? ? ? ? ? ? ?\n? ? ? ? ? ? ? ? ? ? ? ? ? ? ? ? ? ? ? ? ? ? ? ? ? ? ? ? ? ? ? ? ? ? ? ? ? ? ? ? ? ? ? ? ? ? ? ? ? ? ? ?\n? ? ? ? ? ? ? ? ? ? ? ? ? ? ? ? ? ? ? ? ? ? ? ? ? ? ? ? ? ? ? ? ? ? ? ? ? ? ? ? ? ? ? ? ? ? ? ? ? ? ? ? ? ?\n? ? ? ? ? ? ? ? ? ? ? ? ? ? ? ? ? ? ? ? ? ? ? ? ?\n3 D V V H G\n& H U W L I L I \\ & R X U V H\n. ( 6 & R O O H J H . D Q G L Y D O L\n? ? ? ? ? ? ? ? ? ? ? ? ? ? ? ? ?\n? ? ? ? ? ? ? ? ? ? ? ? ? ? ? ? ? ? ? ? ? ? ? ? ? ? ? ? ?\n? ? ? ? ? ? ? ? ? ? ? ? ? ? ? ? ?\n? ? ? ? ? ? ? ? ? ? ? ? ? ? ? ? ? ? ? ? ? ? ?\n? ? ? ? ? ? ? ? ? ? ? ? ? ? ? ? ? ? ? ? ? ? ? ?\n? ? ? ? ? ? ? ? ? ? ? ? ? ? ? ?\n? ? ? ? ? ? ? ? ? ? ? ? ? ? ? ? ? ? ? ? ?\n? ? ? ? ? ? ? ? ? ? ? ? ? ? ? ? ? ? ? ? ? ? ?",
            "updated_at": "2026-07-06 17:18:28",
            "last_error": null,
            "lead_email": "ayush.munot786@gmail.com",
            "lead_phone": "09699912501",
            "city": "Mumbai",
            "lead_city": "Mumbai",
            "country": "",
            "lead_country": "",
            "willing_to_relocate": "",
            "lead_willing_to_relocate": "",
            "experiance": "36",
            "lead_experiance": "36",
            "qualification": "",
            "lead_qualification": "",
            "cjtitle": "",
            "lead_cjtitle": "",
            "cemployer": "",
            "lead_cemployer": "",
            "csalary": "25000",
            "lead_csalary": "25000",
            "esalary": "30000",
            "lead_esalary": "30000",
            "skillset": "Social Media Marketing , Good In Editing and Shooting , Good In Designing and Knows to Meta Ads Leads management",
            "lead_skillset": "Social Media Marketing , Good In Editing and Shooting , Good In Designing and Knows to Meta Ads Leads management",
            "ainfo": "",
            "lead_ainfo": "",
            "nperiod": "5",
            "lead_nperiod": "5",
            "dateadded": "2026-06-17 11:58:28",
            "lead_dateadded": "2026-06-17 11:58:28",
            "roles": "5",
            "lead_roles": "5",
            "lead_status_name": "New Candidate",
            "lead_source_name": "LinkedIN",
            "relevance_score": "0"
        }
    ],
    "total": 9910,
    "page": 1,
    "per_page": 1,
    "pages": 9910
}